{
  "resultCode": 200,
  "resultMessage": "OK",
  "data": {
    "totalElements": 106,
    "totalPages": 9,
    "size": 12,
    "currentPage": 1,
    "content": [
      {
        "id": 143017,
        "title": "가보호텔",
        "address": "경기도 평택시 평택5로76번길 18-10",
        "address2": "",
        "area": "경기",
        "category": "호텔",
        "image": "http://tong.visitkorea.or.kr/cms/resource/83/1942883_image2_1.jpg",
        "thumbnail": "http://tong.visitkorea.or.kr/cms/resource/83/1942883_image3_1.jpg",
        "price": 999,
        "latitude": 36.9932008224,
        "longitude": 127.1128582139,
        "likeCount": 0,
        "rating": 3.5
      },
      {
        "id": 142984,
        "title": "거제관광호텔",
        "address": "경상남도 거제시 거제중앙로 1898-5",
        "address2": "",
        "area": "경남",
        "category": "호텔",
        "image": "http://tong.visitkorea.or.kr/cms/resource/39/1981439_image2_1.jpg",
        "thumbnail": "http://tong.visitkorea.or.kr/cms/resource/39/1981439_image3_1.jpg",
        "price": 999,
        "latitude": 34.8880476491,
        "longitude": 128.6239840921,
        "likeCount": 0,
        "rating": 3.5
      },
      {
        "id": 142785,
        "title": "가락관광호텔",
        "address": "서울특별시 송파구 송파대로28길 5",
        "address2": "(가락동)",
        "area": "서울",
        "category": "호텔",
        "image": "http://tong.visitkorea.or.kr/cms/resource/02/2493702_image2_1.jpg",
        "thumbnail": "http://tong.visitkorea.or.kr/cms/resource/02/2493702_image2_1.jpg",
        "price": 999,
        "latitude": 37.4966565128,
        "longitude": 127.1166298703,
        "likeCount": 0,
        "rating": 5.0
      },
      {
        "id": 139867,
        "title": "갤러리&펜션 풍경소리",
        "address": "강원특별자치도 인제군 기린면 설피밭길 661",
        "address2": "",
        "area": "강원",
        "category": "펜션",
        "image": "http://tong.visitkorea.or.kr/cms/resource/43/2944043_image2_1.JPG",
        "thumbnail": "http://tong.visitkorea.or.kr/cms/resource/43/2944043_image3_1.JPG",
        "price": 999,
        "latitude": 38.0375689808,
        "longitude": 128.4726878934,
        "likeCount": 0,
        "rating": 2.5
      },
      {
        "id": 139689,
        "title": "거제도섬마을펜션",
        "address": "경상남도 거제시 일운면 거제대로 1988-10",
        "address2": "",
        "area": "경남",
        "category": "펜션",
        "image": "http://tong.visitkorea.or.kr/cms/resource/73/2436173_image2_1.jpg",
        "thumbnail": "http://tong.visitkorea.or.kr/cms/resource/73/2436173_image2_1.jpg",
        "price": 999,
        "latitude": 34.8115239389,
        "longitude": 128.6835031689,
        "likeCount": 0,
        "rating": 3.0
      },
      {
        "id": 139224,
        "title": "갤럭시 모텔",
        "address": "강원특별자치도 정선군 사북읍 소금강로 3489",
        "address2": "",
        "area": "강원",
        "category": "모텔",
        "image": "http://tong.visitkorea.or.kr/cms/resource/20/207320_image2_1.jpg",
        "thumbnail": "http://tong.visitkorea.or.kr/cms/resource/20/207320_image3_1.jpg",
        "price": 999,
        "latitude": 37.2294806274,
        "longitude": 128.8420903297,
        "likeCount": 0,
        "rating": 4.5
      },
      {
        "id": 139190,
        "title": "강촌 느티나무마을펜션",
        "address": "강원특별자치도 춘천시 남산면 강촌로 80-1",
        "address2": "",
        "area": "강원",
        "category": "펜션",
        "image": "http://tong.visitkorea.or.kr/cms/resource/81/2045681_image2_1.JPG",
        "thumbnail": "http://tong.visitkorea.or.kr/cms/resource/81/2045681_image2_1.JPG",
        "price": 999,
        "latitude": 37.8118376994,
        "longitude": 127.6345597418,
        "likeCount": 0,
        "rating": 5.0
      },
      {
        "id": 138703,
        "title": "거제도 펜션팔색조",
        "address": "경상남도 거제시 일운면 북병산로 460",
        "address2": "",
        "area": "경남",
        "category": "펜션",
        "image": "http://tong.visitkorea.or.kr/cms/resource/64/1981364_image2_1.jpg",
        "thumbnail": "http://tong.visitkorea.or.kr/cms/resource/64/1981364_image3_1.jpg",
        "price": 999,
        "latitude": 34.8179980439,
        "longitude": 128.6739454941,
        "likeCount": 0,
        "rating": 2.5
      },
      {
        "id": 138547,
        "title": "강변에서 황토콘도",
        "address": "강원특별자치도 인제군 인제읍 내린천로 5384",
        "address2": "",
        "area": "강원",
        "category": "펜션",
        "image": "http://tong.visitkorea.or.kr/cms/resource/28/1843128_image2_1.jpg",
        "thumbnail": "http://tong.visitkorea.or.kr/cms/resource/28/1843128_image3_1.jpg",
        "price": 999,
        "latitude": 38.0100072208,
        "longitude": 128.2720847253,
        "likeCount": 0,
        "rating": 2.5
      },
      {
        "id": 137913,
        "title": "강이흐르는마을 펜션",
        "address": "강원특별자치도 정선군 정선읍 군언길 129",
        "address2": "",
        "area": "강원",
        "category": "펜션",
        "image": "http://tong.visitkorea.or.kr/cms/resource/04/1825804_image2_1.jpg",
        "thumbnail": "http://tong.visitkorea.or.kr/cms/resource/04/1825804_image3_1.jpg",
        "price": 999,
        "latitude": 37.3697517144,
        "longitude": 128.6109401719,
        "likeCount": 0,
        "rating": 3.5
      },
      {
        "id": 136962,
        "title": "강천각모텔",
        "address": "전북특별자치도 순창군 팔덕면 강천산길 85",
        "address2": "",
        "area": "전북",
        "category": "모텔",
        "image": "http://tong.visitkorea.or.kr/cms/resource/02/2493702_image2_1.jpg",
        "thumbnail": "http://tong.visitkorea.or.kr/cms/resource/02/2493702_image2_1.jpg",
        "price": 999,
        "latitude": 35.4086478499,
        "longitude": 127.0688154117,
        "likeCount": 0,
        "rating": 4.5
      },
      {
        "id": 136605,
        "title": "강화유스호스텔",
        "address": "인천광역시 강화군 내가면 해안서로 972",
        "address2": "",
        "area": "인천",
        "category": "유스호스텔",
        "image": "http://tong.visitkorea.or.kr/cms/resource/56/1575756_image2_1.jpg",
        "thumbnail": "http://tong.visitkorea.or.kr/cms/resource/56/1575756_image3_1.jpg",
        "price": 999,
        "latitude": 37.7045385779,
        "longitude": 126.3745584698,
        "likeCount": 0,
        "rating": 3.5
      }
    ]
  }
}